{"failedCount":0,"prefixedPath":"src\/test\/java\/getUser.feature","packageQualifiedName":"src.test.java.getUser","loopIndex":-1,"relativePath":"src\/test\/java\/getUser.feature","scenarioResults":[{"sectionIndex":0,"stepResults":[{"result":{"nanos":102379700,"millis":102.3797,"status":"passed"},"step":{"line":4,"prefix":"Given","index":0,"text":"url 'https:\/\/reqres.in\/api\/users\/2'"}},{"result":{"nanos":2205669700,"millis":2205.6697,"status":"passed"},"step":{"line":5,"prefix":"When","index":1,"text":"method GET"},"stepLog":"12:20:03.325 request:\n1 > GET https:\/\/reqres.in\/api\/users\/2\n1 > Host: reqres.in\n1 > Connection: Keep-Alive\n1 > User-Agent: Apache-HttpClient\/4.5.13 (Java\/17.0.6)\n1 > Accept-Encoding: gzip,deflate\n\n\n12:20:03.942 response time in milliseconds: 612\n1 < 200\n1 < Date: Thu, 28 Mar 2024 06:50:05 GMT\n1 < Content-Type: application\/json; charset=utf-8\n1 < Transfer-Encoding: chunked\n1 < Connection: keep-alive\n1 < Report-To: {\"group\":\"heroku-nel\",\"max_age\":3600,\"endpoints\":[{\"url\":\"https:\/\/nel.heroku.com\/reports?ts=1711603924&sid=c4c9725f-1ab0-44d8-820f-430df2718e11&s=dW3p85uSqnSCVib0D7IVmQmp%2FT3I%2BIv7mAvH32lp06w%3D\"}]}\n1 < Reporting-Endpoints: heroku-nel=https:\/\/nel.heroku.com\/reports?ts=1711603924&sid=c4c9725f-1ab0-44d8-820f-430df2718e11&s=dW3p85uSqnSCVib0D7IVmQmp%2FT3I%2BIv7mAvH32lp06w%3D\n1 < Nel: {\"report_to\":\"heroku-nel\",\"max_age\":3600,\"success_fraction\":0.005,\"failure_fraction\":0.05,\"response_headers\":[\"Via\"]}\n1 < X-Powered-By: Express\n1 < Access-Control-Allow-Origin: *\n1 < Etag: W\/\"118-pbdwwFo9SKNhD3Lx5iHJyngpq00\"\n1 < Via: 1.1 vegur\n1 < Cache-Control: max-age=14400\n1 < CF-Cache-Status: HIT\n1 < Age: 4681\n1 < Vary: Accept-Encoding\n1 < Server: cloudflare\n1 < CF-RAY: 86b5af16bc7359ae-DEL\n{\"data\":{\"id\":2,\"email\":\"janet.weaver@reqres.in\",\"first_name\":\"Janet\",\"last_name\":\"Weaver\",\"avatar\":\"https:\/\/reqres.in\/img\/faces\/2-image.jpg\"},\"support\":{\"url\":\"https:\/\/reqres.in\/#support-heading\",\"text\":\"To keep ReqRes free, contributions towards server costs are appreciated!\"}}\n\n"},{"result":{"nanos":16900,"millis":0.0169,"status":"passed"},"step":{"line":6,"prefix":"Then","index":2,"text":"status 200"}}],"executorName":"main","line":3,"name":"testing the get call for User Details","description":"","durationMillis":2308.0663,"startTime":1711608601917,"failed":false,"refId":"[1:3]","endTime":1711608604239,"exampleIndex":-1},{"sectionIndex":1,"stepResults":[{"result":{"nanos":495500,"millis":0.4955,"status":"passed"},"step":{"line":9,"prefix":"Given","index":0,"text":"url 'https:\/\/reqres.in\/api\/users?page=2'"}},{"result":{"nanos":217649000,"millis":217.649,"status":"passed"},"step":{"line":10,"prefix":"When","index":1,"text":"method GET"},"stepLog":"12:20:04.247 request:\n1 > GET https:\/\/reqres.in\/api\/users?page=2\n1 > Host: reqres.in\n1 > Connection: Keep-Alive\n1 > User-Agent: Apache-HttpClient\/4.5.13 (Java\/17.0.6)\n1 > Accept-Encoding: gzip,deflate\n\n\n12:20:04.461 response time in milliseconds: 214\n1 < 200\n1 < Date: Thu, 28 Mar 2024 06:50:05 GMT\n1 < Content-Type: application\/json; charset=utf-8\n1 < Transfer-Encoding: chunked\n1 < Connection: keep-alive\n1 < Report-To: {\"group\":\"heroku-nel\",\"max_age\":3600,\"endpoints\":[{\"url\":\"https:\/\/nel.heroku.com\/reports?ts=1711524721&sid=c4c9725f-1ab0-44d8-820f-430df2718e11&s=KexbB3m6t9GQgdoVCvdxE6wzcuD4g8Ce61VuaYX%2F1Q4%3D\"}]}\n1 < Reporting-Endpoints: heroku-nel=https:\/\/nel.heroku.com\/reports?ts=1711524721&sid=c4c9725f-1ab0-44d8-820f-430df2718e11&s=KexbB3m6t9GQgdoVCvdxE6wzcuD4g8Ce61VuaYX%2F1Q4%3D\n1 < Nel: {\"report_to\":\"heroku-nel\",\"max_age\":3600,\"success_fraction\":0.005,\"failure_fraction\":0.05,\"response_headers\":[\"Via\"]}\n1 < X-Powered-By: Express\n1 < Access-Control-Allow-Origin: *\n1 < Etag: W\/\"406-ut0vzoCuidvyMf8arZpMpJ6ZRDw\"\n1 < Via: 1.1 vegur\n1 < Cache-Control: max-age=14400\n1 < CF-Cache-Status: HIT\n1 < Age: 4693\n1 < Vary: Accept-Encoding\n1 < Server: cloudflare\n1 < CF-RAY: 86b5af1a3c525977-DEL\n{\"page\":2,\"per_page\":6,\"total\":12,\"total_pages\":2,\"data\":[{\"id\":7,\"email\":\"michael.lawson@reqres.in\",\"first_name\":\"Michael\",\"last_name\":\"Lawson\",\"avatar\":\"https:\/\/reqres.in\/img\/faces\/7-image.jpg\"},{\"id\":8,\"email\":\"lindsay.ferguson@reqres.in\",\"first_name\":\"Lindsay\",\"last_name\":\"Ferguson\",\"avatar\":\"https:\/\/reqres.in\/img\/faces\/8-image.jpg\"},{\"id\":9,\"email\":\"tobias.funke@reqres.in\",\"first_name\":\"Tobias\",\"last_name\":\"Funke\",\"avatar\":\"https:\/\/reqres.in\/img\/faces\/9-image.jpg\"},{\"id\":10,\"email\":\"byron.fields@reqres.in\",\"first_name\":\"Byron\",\"last_name\":\"Fields\",\"avatar\":\"https:\/\/reqres.in\/img\/faces\/10-image.jpg\"},{\"id\":11,\"email\":\"george.edwards@reqres.in\",\"first_name\":\"George\",\"last_name\":\"Edwards\",\"avatar\":\"https:\/\/reqres.in\/img\/faces\/11-image.jpg\"},{\"id\":12,\"email\":\"rachel.howell@reqres.in\",\"first_name\":\"Rachel\",\"last_name\":\"Howell\",\"avatar\":\"https:\/\/reqres.in\/img\/faces\/12-image.jpg\"}],\"support\":{\"url\":\"https:\/\/reqres.in\/#support-heading\",\"text\":\"To keep ReqRes free, contributions towards server costs are appreciated!\"}}\n\n"},{"result":{"nanos":16500,"millis":0.0165,"status":"passed"},"step":{"line":11,"prefix":"Then","index":2,"text":"status 200"}}],"executorName":"main","line":8,"name":"Get List User","description":"","durationMillis":218.161,"startTime":1711608604245,"failed":false,"refId":"[2:8]","endTime":1711608604463,"exampleIndex":-1},{"sectionIndex":2,"stepResults":[{"result":{"nanos":815200,"millis":0.8152,"status":"passed"},"step":{"line":14,"prefix":"Given","index":0,"text":"url 'https:\/\/reqres.in\/api\/users\/23'"}},{"result":{"nanos":290900900,"millis":290.9009,"status":"passed"},"step":{"line":15,"prefix":"When","index":1,"text":"method GET"},"stepLog":"12:20:04.475 request:\n1 > GET https:\/\/reqres.in\/api\/users\/23\n1 > Host: reqres.in\n1 > Connection: Keep-Alive\n1 > User-Agent: Apache-HttpClient\/4.5.13 (Java\/17.0.6)\n1 > Accept-Encoding: gzip,deflate\n\n\n12:20:04.763 response time in milliseconds: 287\n1 < 404\n1 < Date: Thu, 28 Mar 2024 06:50:06 GMT\n1 < Content-Type: application\/json; charset=utf-8\n1 < Content-Length: 2\n1 < Connection: keep-alive\n1 < Report-To: {\"group\":\"heroku-nel\",\"max_age\":3600,\"endpoints\":[{\"url\":\"https:\/\/nel.heroku.com\/reports?ts=1711608480&sid=c4c9725f-1ab0-44d8-820f-430df2718e11&s=n9LPJyVKfqQvf9fpVeMkruJ501e7oSUhU6N5YUTAj78%3D\"}]}\n1 < Reporting-Endpoints: heroku-nel=https:\/\/nel.heroku.com\/reports?ts=1711608480&sid=c4c9725f-1ab0-44d8-820f-430df2718e11&s=n9LPJyVKfqQvf9fpVeMkruJ501e7oSUhU6N5YUTAj78%3D\n1 < Nel: {\"report_to\":\"heroku-nel\",\"max_age\":3600,\"success_fraction\":0.005,\"failure_fraction\":0.05,\"response_headers\":[\"Via\"]}\n1 < X-Powered-By: Express\n1 < Access-Control-Allow-Origin: *\n1 < Etag: W\/\"2-vyGp6PvFo4RvsFtPoIWeCReyIC8\"\n1 < Via: 1.1 vegur\n1 < Cache-Control: max-age=14400\n1 < CF-Cache-Status: HIT\n1 < Age: 126\n1 < Vary: Accept-Encoding\n1 < Server: cloudflare\n1 < CF-RAY: 86b5af1c1d6f59ab-DEL\n{}\n\n"},{"result":{"nanos":20900,"millis":0.0209,"status":"passed"},"step":{"line":16,"prefix":"Then","index":2,"text":"status 404"}}],"executorName":"main","line":13,"name":"Get single User not found","description":"","durationMillis":291.737,"startTime":1711608604471,"failed":false,"refId":"[3:13]","endTime":1711608604764,"exampleIndex":-1},{"sectionIndex":3,"stepResults":[{"result":{"nanos":1058500,"millis":1.0585,"status":"passed"},"step":{"line":19,"prefix":"Given","index":0,"text":"url 'https:\/\/reqres.in\/api\/unknown'"}},{"result":{"nanos":267561500,"millis":267.5615,"status":"passed"},"step":{"line":20,"prefix":"When","index":1,"text":"method GET"},"stepLog":"12:20:04.780 request:\n1 > GET https:\/\/reqres.in\/api\/unknown\n1 > Host: reqres.in\n1 > Connection: Keep-Alive\n1 > User-Agent: Apache-HttpClient\/4.5.13 (Java\/17.0.6)\n1 > Accept-Encoding: gzip,deflate\n\n\n12:20:05.044 response time in milliseconds: 263\n1 < 200\n1 < Date: Thu, 28 Mar 2024 06:50:06 GMT\n1 < Content-Type: application\/json; charset=utf-8\n1 < Transfer-Encoding: chunked\n1 < Connection: keep-alive\n1 < Report-To: {\"group\":\"heroku-nel\",\"max_age\":3600,\"endpoints\":[{\"url\":\"https:\/\/nel.heroku.com\/reports?ts=1711463710&sid=c4c9725f-1ab0-44d8-820f-430df2718e11&s=4E3O%2BSaDPGhGX2EHQVICXMI%2BGmjs%2B0cQrZtU4nDKD%2F0%3D\"}]}\n1 < Reporting-Endpoints: heroku-nel=https:\/\/nel.heroku.com\/reports?ts=1711463710&sid=c4c9725f-1ab0-44d8-820f-430df2718e11&s=4E3O%2BSaDPGhGX2EHQVICXMI%2BGmjs%2B0cQrZtU4nDKD%2F0%3D\n1 < Nel: {\"report_to\":\"heroku-nel\",\"max_age\":3600,\"success_fraction\":0.005,\"failure_fraction\":0.05,\"response_headers\":[\"Via\"]}\n1 < X-Powered-By: Express\n1 < Access-Control-Allow-Origin: *\n1 < Etag: W\/\"2c1-N6Rqerxquq2kgQhL51EiSg4x0R8\"\n1 < Via: 1.1 vegur\n1 < Cache-Control: max-age=14400\n1 < CF-Cache-Status: HIT\n1 < Age: 4432\n1 < Vary: Accept-Encoding\n1 < Server: cloudflare\n1 < CF-RAY: 86b5af1def51596b-DEL\n{\"page\":1,\"per_page\":6,\"total\":12,\"total_pages\":2,\"data\":[{\"id\":1,\"name\":\"cerulean\",\"year\":2000,\"color\":\"#98B2D1\",\"pantone_value\":\"15-4020\"},{\"id\":2,\"name\":\"fuchsia rose\",\"year\":2001,\"color\":\"#C74375\",\"pantone_value\":\"17-2031\"},{\"id\":3,\"name\":\"true red\",\"year\":2002,\"color\":\"#BF1932\",\"pantone_value\":\"19-1664\"},{\"id\":4,\"name\":\"aqua sky\",\"year\":2003,\"color\":\"#7BC4C4\",\"pantone_value\":\"14-4811\"},{\"id\":5,\"name\":\"tigerlily\",\"year\":2004,\"color\":\"#E2583E\",\"pantone_value\":\"17-1456\"},{\"id\":6,\"name\":\"blue turquoise\",\"year\":2005,\"color\":\"#53B0AE\",\"pantone_value\":\"15-5217\"}],\"support\":{\"url\":\"https:\/\/reqres.in\/#support-heading\",\"text\":\"To keep ReqRes free, contributions towards server costs are appreciated!\"}}\n\n"},{"result":{"nanos":18400,"millis":0.0184,"status":"passed"},"step":{"line":21,"prefix":"Then","index":2,"text":"status 200"}}],"executorName":"main","line":18,"name":"Get List resources","description":"","durationMillis":268.6384,"startTime":1711608604777,"failed":false,"refId":"[4:18]","endTime":1711608605045,"exampleIndex":-1},{"sectionIndex":4,"stepResults":[{"result":{"nanos":647700,"millis":0.6477,"status":"passed"},"step":{"line":24,"prefix":"Given","index":0,"text":"url 'https:\/\/reqres.in\/api\/unknown\/2'"}},{"result":{"nanos":191208900,"millis":191.2089,"status":"passed"},"step":{"line":25,"prefix":"When","index":1,"text":"method GET"},"stepLog":"12:20:05.059 request:\n1 > GET https:\/\/reqres.in\/api\/unknown\/2\n1 > Host: reqres.in\n1 > Connection: Keep-Alive\n1 > User-Agent: Apache-HttpClient\/4.5.13 (Java\/17.0.6)\n1 > Accept-Encoding: gzip,deflate\n\n\n12:20:05.247 response time in milliseconds: 187\n1 < 200\n1 < Date: Thu, 28 Mar 2024 06:50:06 GMT\n1 < Content-Type: application\/json; charset=utf-8\n1 < Transfer-Encoding: chunked\n1 < Connection: keep-alive\n1 < Report-To: {\"group\":\"heroku-nel\",\"max_age\":3600,\"endpoints\":[{\"url\":\"https:\/\/nel.heroku.com\/reports?ts=1710999315&sid=c4c9725f-1ab0-44d8-820f-430df2718e11&s=8%2BngTqsMqHS2h4QPGWwNvyJGnRlFYEBUb4Wq3056kuw%3D\"}]}\n1 < Reporting-Endpoints: heroku-nel=https:\/\/nel.heroku.com\/reports?ts=1710999315&sid=c4c9725f-1ab0-44d8-820f-430df2718e11&s=8%2BngTqsMqHS2h4QPGWwNvyJGnRlFYEBUb4Wq3056kuw%3D\n1 < Nel: {\"report_to\":\"heroku-nel\",\"max_age\":3600,\"success_fraction\":0.005,\"failure_fraction\":0.05,\"response_headers\":[\"Via\"]}\n1 < X-Powered-By: Express\n1 < Access-Control-Allow-Origin: *\n1 < Etag: W\/\"e8-ov4wWh4\/OY1IMQMqWgskYtOFnVs\"\n1 < Via: 1.1 vegur\n1 < Cache-Control: max-age=14400\n1 < CF-Cache-Status: HIT\n1 < Age: 4541\n1 < Vary: Accept-Encoding\n1 < Server: cloudflare\n1 < CF-RAY: 86b5af1f2bbf5981-DEL\n{\"data\":{\"id\":2,\"name\":\"fuchsia rose\",\"year\":2001,\"color\":\"#C74375\",\"pantone_value\":\"17-2031\"},\"support\":{\"url\":\"https:\/\/reqres.in\/#support-heading\",\"text\":\"To keep ReqRes free, contributions towards server costs are appreciated!\"}}\n\n"},{"result":{"nanos":29800,"millis":0.0298,"status":"passed"},"step":{"line":26,"prefix":"Then","index":2,"text":"status 200"}}],"executorName":"main","line":23,"name":"Get single resource","description":"","durationMillis":191.8864,"startTime":1711608605056,"failed":false,"refId":"[5:23]","endTime":1711608605249,"exampleIndex":-1},{"sectionIndex":5,"stepResults":[{"result":{"nanos":1321100,"millis":1.3211,"status":"passed"},"step":{"line":29,"prefix":"Given","index":0,"text":"url 'https:\/\/reqres.in\/api\/unknown\/23'"}},{"result":{"nanos":561308600,"millis":561.3086,"status":"passed"},"step":{"line":30,"prefix":"When","index":1,"text":"method GET"},"stepLog":"12:20:05.268 request:\n1 > GET https:\/\/reqres.in\/api\/unknown\/23\n1 > Host: reqres.in\n1 > Connection: Keep-Alive\n1 > User-Agent: Apache-HttpClient\/4.5.13 (Java\/17.0.6)\n1 > Accept-Encoding: gzip,deflate\n\n\n12:20:05.822 response time in milliseconds: 554\n1 < 404\n1 < Date: Thu, 28 Mar 2024 06:50:07 GMT\n1 < Content-Type: application\/json; charset=utf-8\n1 < Content-Length: 2\n1 < Connection: keep-alive\n1 < Report-To: {\"group\":\"heroku-nel\",\"max_age\":3600,\"endpoints\":[{\"url\":\"https:\/\/nel.heroku.com\/reports?ts=1711608607&sid=c4c9725f-1ab0-44d8-820f-430df2718e11&s=zqsFp56E3e42VQ2aS2tzb6oNb2b%2FTM%2BdjmiL%2F0jMlCM%3D\"}]}\n1 < Reporting-Endpoints: heroku-nel=https:\/\/nel.heroku.com\/reports?ts=1711608607&sid=c4c9725f-1ab0-44d8-820f-430df2718e11&s=zqsFp56E3e42VQ2aS2tzb6oNb2b%2FTM%2BdjmiL%2F0jMlCM%3D\n1 < Nel: {\"report_to\":\"heroku-nel\",\"max_age\":3600,\"success_fraction\":0.005,\"failure_fraction\":0.05,\"response_headers\":[\"Via\"]}\n1 < X-Powered-By: Express\n1 < Access-Control-Allow-Origin: *\n1 < Etag: W\/\"2-vyGp6PvFo4RvsFtPoIWeCReyIC8\"\n1 < Via: 1.1 vegur\n1 < Cache-Control: max-age=14400\n1 < CF-Cache-Status: EXPIRED\n1 < Vary: Accept-Encoding\n1 < Server: cloudflare\n1 < CF-RAY: 86b5af20cd1059f0-DEL\n{}\n\n"},{"result":{"nanos":41600,"millis":0.0416,"status":"passed"},"step":{"line":31,"prefix":"Then","index":2,"text":"status 404"}}],"executorName":"main","line":28,"name":"Get Single resource not found","description":"","durationMillis":562.6713,"startTime":1711608605263,"failed":false,"refId":"[6:28]","endTime":1711608605826,"exampleIndex":-1},{"sectionIndex":6,"stepResults":[{"result":{"nanos":1311300,"millis":1.3113,"status":"passed"},"step":{"line":34,"prefix":"Given","index":0,"text":"url 'https:\/\/reqres.in\/api\/users?delay=3'"}},{"result":{"nanos":3503881400,"millis":3503.8814,"status":"passed"},"step":{"line":35,"prefix":"When","index":1,"text":"method GET"},"stepLog":"12:20:05.849 request:\n1 > GET https:\/\/reqres.in\/api\/users?delay=3\n1 > Host: reqres.in\n1 > Connection: Keep-Alive\n1 > User-Agent: Apache-HttpClient\/4.5.13 (Java\/17.0.6)\n1 > Accept-Encoding: gzip,deflate\n\n\n12:20:09.346 response time in milliseconds: 3497\n1 < 200\n1 < Date: Thu, 28 Mar 2024 06:50:10 GMT\n1 < Content-Type: application\/json; charset=utf-8\n1 < Transfer-Encoding: chunked\n1 < Connection: keep-alive\n1 < Report-To: {\"group\":\"heroku-nel\",\"max_age\":3600,\"endpoints\":[{\"url\":\"https:\/\/nel.heroku.com\/reports?ts=1711608607&sid=c4c9725f-1ab0-44d8-820f-430df2718e11&s=zqsFp56E3e42VQ2aS2tzb6oNb2b%2FTM%2BdjmiL%2F0jMlCM%3D\"}]}\n1 < Reporting-Endpoints: heroku-nel=https:\/\/nel.heroku.com\/reports?ts=1711608607&sid=c4c9725f-1ab0-44d8-820f-430df2718e11&s=zqsFp56E3e42VQ2aS2tzb6oNb2b%2FTM%2BdjmiL%2F0jMlCM%3D\n1 < Nel: {\"report_to\":\"heroku-nel\",\"max_age\":3600,\"success_fraction\":0.005,\"failure_fraction\":0.05,\"response_headers\":[\"Via\"]}\n1 < X-Powered-By: Express\n1 < Access-Control-Allow-Origin: *\n1 < Etag: W\/\"3e4-2RLXvr5wTg9YQ6aH95CkYoFNuO8\"\n1 < Via: 1.1 vegur\n1 < CF-Cache-Status: DYNAMIC\n1 < Server: cloudflare\n1 < CF-RAY: 86b5af23ed5559e2-DEL\n{\"page\":1,\"per_page\":6,\"total\":12,\"total_pages\":2,\"data\":[{\"id\":1,\"email\":\"george.bluth@reqres.in\",\"first_name\":\"George\",\"last_name\":\"Bluth\",\"avatar\":\"https:\/\/reqres.in\/img\/faces\/1-image.jpg\"},{\"id\":2,\"email\":\"janet.weaver@reqres.in\",\"first_name\":\"Janet\",\"last_name\":\"Weaver\",\"avatar\":\"https:\/\/reqres.in\/img\/faces\/2-image.jpg\"},{\"id\":3,\"email\":\"emma.wong@reqres.in\",\"first_name\":\"Emma\",\"last_name\":\"Wong\",\"avatar\":\"https:\/\/reqres.in\/img\/faces\/3-image.jpg\"},{\"id\":4,\"email\":\"eve.holt@reqres.in\",\"first_name\":\"Eve\",\"last_name\":\"Holt\",\"avatar\":\"https:\/\/reqres.in\/img\/faces\/4-image.jpg\"},{\"id\":5,\"email\":\"charles.morris@reqres.in\",\"first_name\":\"Charles\",\"last_name\":\"Morris\",\"avatar\":\"https:\/\/reqres.in\/img\/faces\/5-image.jpg\"},{\"id\":6,\"email\":\"tracey.ramos@reqres.in\",\"first_name\":\"Tracey\",\"last_name\":\"Ramos\",\"avatar\":\"https:\/\/reqres.in\/img\/faces\/6-image.jpg\"}],\"support\":{\"url\":\"https:\/\/reqres.in\/#support-heading\",\"text\":\"To keep ReqRes free, contributions towards server costs are appreciated!\"}}\n\n"},{"result":{"nanos":25100,"millis":0.0251,"status":"passed"},"step":{"line":36,"prefix":"Then","index":2,"text":"status 200"}}],"executorName":"main","line":33,"name":"Get delayed response","description":"","durationMillis":3505.2178,"startTime":1711608605844,"failed":false,"refId":"[7:33]","endTime":1711608609349,"exampleIndex":-1},{"sectionIndex":7,"stepResults":[{"result":{"nanos":1198300,"millis":1.1983,"status":"passed"},"step":{"line":40,"prefix":"Given","index":0,"text":"url 'https:\/\/gorest.co.in\/public\/v2\/users'"}},{"result":{"nanos":1102312500,"millis":1102.3125,"status":"passed"},"step":{"line":41,"prefix":"When","index":1,"text":"method GET"},"stepLog":"12:20:09.364 request:\n1 > GET https:\/\/gorest.co.in\/public\/v2\/users\n1 > Host: gorest.co.in\n1 > Connection: Keep-Alive\n1 > User-Agent: Apache-HttpClient\/4.5.13 (Java\/17.0.6)\n1 > Accept-Encoding: gzip,deflate\n\n\n12:20:10.445 response time in milliseconds: 1081\n1 < 200\n1 < Date: Thu, 28 Mar 2024 06:50:11 GMT\n1 < Content-Type: application\/json; charset=utf-8\n1 < Transfer-Encoding: chunked\n1 < Connection: keep-alive\n1 < Cache-Control: max-age=0, private, must-revalidate\n1 < etag: W\/\"a25e6cf4ec2877cd77f140b06c74f744\"\n1 < referrer-policy: strict-origin-when-cross-origin\n1 < vary: Origin\n1 < x-content-type-options: nosniff\n1 < x-download-options: noopen\n1 < x-frame-options: SAMEORIGIN\n1 < x-links-current: https:\/\/gorest.co.in\/public\/v2\/users?page=1\n1 < x-links-next: https:\/\/gorest.co.in\/public\/v2\/users?page=2\n1 < x-links-previous: \n1 < x-pagination-limit: 10\n1 < x-pagination-page: 1\n1 < x-pagination-pages: 293\n1 < x-pagination-total: 2922\n1 < x-permitted-cross-domain-policies: none\n1 < x-request-id: 9a51c41b-46ae-4937-be09-8996ab756e24\n1 < x-runtime: 0.052222\n1 < x-xss-protection: 0\n1 < CF-Cache-Status: DYNAMIC\n1 < Report-To: {\"endpoints\":[{\"url\":\"https:\\\/\\\/a.nel.cloudflare.com\\\/report\\\/v4?s=tAgPiOjaXDbxp6k23zx3UQnmrpO9skJOZX%2FkAlDwStatVhCHwUrIACe8FHgpnIKbg5r5LenO4btZ70XTQg4syPMMW2PWE%2BHSEz%2BjWIdXjOGYs22vwCEGhLeFzsDLUf0%3D\"}],\"group\":\"cf-nel\",\"max_age\":604800}\n1 < NEL: {\"success_fraction\":0,\"report_to\":\"cf-nel\",\"max_age\":604800}\n1 < Server: cloudflare\n1 < CF-RAY: 86b5af3c1e800224-CDG\n1 < alt-svc: h3=\":443\"; ma=86400\n[{\"id\":6809950,\"name\":\"Sen. Bhuvaneshwar Shukla\",\"email\":\"shukla_sen_bhuvaneshwar@howe.test\",\"gender\":\"female\",\"status\":\"active\"},{\"id\":6809949,\"name\":\"Kama Dubashi Ret.\",\"email\":\"dubashi_kama_ret@mertz.example\",\"gender\":\"male\",\"status\":\"active\"},{\"id\":6809948,\"name\":\"Gandharva Abbott\",\"email\":\"abbott_gandharva@christiansen-hand.test\",\"gender\":\"male\",\"status\":\"active\"},{\"id\":6809945,\"name\":\"Anand Swarup Varman\",\"email\":\"varman_swarup_anand@rice-fritsch.test\",\"gender\":\"male\",\"status\":\"inactive\"},{\"id\":6809944,\"name\":\"Acaryatanaya Johar\",\"email\":\"acaryatanaya_johar@jaskolski.test\",\"gender\":\"female\",\"status\":\"active\"},{\"id\":6809943,\"name\":\"Rep. Vaidehi Kaur\",\"email\":\"rep_kaur_vaidehi@mohr.example\",\"gender\":\"male\",\"status\":\"inactive\"},{\"id\":6809366,\"name\":\"Msgr. Chandramauli Adiga\",\"email\":\"msgr_chandramauli_adiga@feil.example\",\"gender\":\"female\",\"status\":\"active\"},{\"id\":6809365,\"name\":\"Tanushri Namboothiri\",\"email\":\"namboothiri_tanushri@bayer.test\",\"gender\":\"female\",\"status\":\"inactive\"},{\"id\":6809364,\"name\":\"Rev. Ramesh Kaul\",\"email\":\"rev_kaul_ramesh@zulauf-kemmer.test\",\"gender\":\"female\",\"status\":\"inactive\"},{\"id\":6809363,\"name\":\"Rakesh Kaul JD\",\"email\":\"kaul_jd_rakesh@robel-wilkinson.test\",\"gender\":\"female\",\"status\":\"active\"}]\n\n"},{"result":{"nanos":12400,"millis":0.0124,"status":"passed"},"step":{"line":42,"prefix":"Then","index":2,"text":"status 200"}}],"executorName":"main","line":39,"name":"Gorest Get method","description":"","durationMillis":1103.5232,"startTime":1711608609360,"failed":false,"refId":"[8:39]","endTime":1711608610464,"exampleIndex":-1}],"callDepth":0,"name":"fetching User Details","description":"","resultDate":"2024-03-28 12:20:10 pm","durationMillis":8449.9014,"passedCount":8}